{
    "1.1.5": [
        {
            "id": "ModEngine",
            "methods": [
                {
                    "name": "println",
                    "arguments": ["msg:String"],
                    "returns": "void"
                },
                {
                    "name": "add_game_stats",
                    "arguments": "",
                    "returns": "void"
                },
                {
                    "name": "enable_devmode",
                    "arguments": "",
                    "returns": "void"
                },
                {
                    "name": "set_name",
                    "arguments": "name:String",
                    "returns": "void"
                },
                {
                    "name": "get_name",
                    "arguments": "",
                    "returns": "String"
                },
                {
                    "name": "set_version",
                    "arguments": "ver:float",
                    "returns": "void"
                },
                {
                    "name": "get_version",
                    "arguments": "",
                    "returns": "float"
                }
            ],
            "properties": [
                {
                    "name": "MOD_NAME",
                    "type": "String"
                },
                {
                    "name": "LOADER_VER",
                    "type": "float"
                }
            ]
        }
    ]
}